VHDL/stack_filler_tb.vcd
$date
  Wed Mar 23 17:40:18 2022
$end
$version
  GHDL v0
$end
$timescale
  1 fs
$end
$scope module standard $end
$upscope $end
$scope module std_logic_1164 $end
$upscope $end
$scope module numeric_std $end
$upscope $end
$scope module array_vector_package $end
$upscope $end
$scope module stack_filler_tb $end
$var reg 8 ! valin[7:0] $end
$var reg 8 " valout[7:0] $end
$var reg 4 # numvals[3:0] $end
$var reg 4 $ numzeros[3:0] $end
$var reg 1 % clk $end
$var reg 1 & rst $end
$var reg 1 ' en $end
$var reg 1 ( rd $end
$var reg 1 ) ennxt $end
$var reg 1 * rdy $end
$scope module stack_filler1 $end
$var reg 8 + valin[7:0] $end
$var reg 1 , clk $end
$var reg 1 - rst $end
$var reg 1 . en $end
$var reg 1 / rd $end
$var reg 4 0 numvals[3:0] $end
$var reg 4 1 numzeros[3:0] $end
$var reg 1 2 ennxt $end
$var reg 8 3 valout[7:0] $end
$var reg 1 4 rdy $end
$var reg 1 5 counter1stopped $end
$var reg 1 6 counter1notstopped $end
$var reg 1 7 counter2stopped $end
$var reg 1 8 counter2notstopped $end
$var reg 1 9 orout1 $end
$var reg 1 : orout2 $end
$var reg 1 ; andout1 $end
$var reg 1 < andout2 $end
$var reg 1 = andout3 $end
$var reg 1 > stackempty $end
$var reg 1 ? stackfull $end
$var reg 8 @ zeros[7:0] $end
$var reg 8 A muxout[7:0] $end
$scope module while_counter1 $end
$var reg 1 B clk $end
$var reg 1 C en $end
$var reg 1 D rst $end
$var reg 4 E countuntil[3:0] $end
$var reg 1 F stopped $end
$var reg 1 G not_stopped $end
$var reg 1 H andout $end
$var reg 1 I notout $end
$var reg 1 J comparatorout $end
$var reg 4 K counterout[3:0] $end
$scope module and1 $end
$var reg 1 L a $end
$var reg 1 M b $end
$var reg 1 N o $end
$upscope $end
$scope module not1 $end
$var reg 1 O a $end
$var reg 1 P o $end
$upscope $end
$scope module counter1 $end
$var reg 1 Q clk $end
$var reg 1 R rst $end
$var reg 1 S en $end
$var reg 4 T q[3:0] $end
$var reg 4 U tmp[3:0] $end
$upscope $end
$scope module comparator1 $end
$var reg 4 V a[3:0] $end
$var reg 4 W b[3:0] $end
$var reg 1 X eq $end
$upscope $end
$upscope $end
$scope module while_counter2 $end
$var reg 1 Y clk $end
$var reg 1 Z en $end
$var reg 1 [ rst $end
$var reg 4 \ countuntil[3:0] $end
$var reg 1 ] stopped $end
$var reg 1 ^ not_stopped $end
$var reg 1 _ andout $end
$var reg 1 ` notout $end
$var reg 1 a comparatorout $end
$var reg 4 b counterout[3:0] $end
$scope module and1 $end
$var reg 1 c a $end
$var reg 1 d b $end
$var reg 1 e o $end
$upscope $end
$scope module not1 $end
$var reg 1 f a $end
$var reg 1 g o $end
$upscope $end
$scope module counter1 $end
$var reg 1 h clk $end
$var reg 1 i rst $end
$var reg 1 j en $end
$var reg 4 k q[3:0] $end
$var reg 4 l tmp[3:0] $end
$upscope $end
$scope module comparator1 $end
$var reg 4 m a[3:0] $end
$var reg 4 n b[3:0] $end
$var reg 1 o eq $end
$upscope $end
$upscope $end
$scope module mux1 $end
$var reg 8 p a[7:0] $end
$var reg 8 q b[7:0] $end
$var reg 1 r s $end
$var reg 8 s o[7:0] $end
$scope module gen1(0) $end
$scope module mux_two_ones $end
$var reg 1 t a $end
$var reg 1 u b $end
$var reg 1 v s $end
$var reg 1 w o $end
$var reg 1 x not_s $end
$var reg 1 y andout1 $end
$var reg 1 z andout2 $end
$scope module not1 $end
$var reg 1 { a $end
$var reg 1 | o $end
$upscope $end
$scope module and1 $end
$var reg 1 } a $end
$var reg 1 !" b $end
$var reg 1 "" o $end
$upscope $end
$scope module and2 $end
$var reg 1 #" a $end
$var reg 1 $" b $end
$var reg 1 %" o $end
$upscope $end
$scope module or1 $end
$var reg 1 &" a $end
$var reg 1 '" b $end
$var reg 1 (" o $end
$upscope $end
$upscope $end
$upscope $end
$scope module gen1(1) $end
$scope module mux_two_ones $end
$var reg 1 )" a $end
$var reg 1 *" b $end
$var reg 1 +" s $end
$var reg 1 ," o $end
$var reg 1 -" not_s $end
$var reg 1 ." andout1 $end
$var reg 1 /" andout2 $end
$scope module not1 $end
$var reg 1 0" a $end
$var reg 1 1" o $end
$upscope $end
$scope module and1 $end
$var reg 1 2" a $end
$var reg 1 3" b $end
$var reg 1 4" o $end
$upscope $end
$scope module and2 $end
$var reg 1 5" a $end
$var reg 1 6" b $end
$var reg 1 7" o $end
$upscope $end
$scope module or1 $end
$var reg 1 8" a $end
$var reg 1 9" b $end
$var reg 1 :" o $end
$upscope $end
$upscope $end
$upscope $end
$scope module gen1(2) $end
$scope module mux_two_ones $end
$var reg 1 ;" a $end
$var reg 1 <" b $end
$var reg 1 =" s $end
$var reg 1 >" o $end
$var reg 1 ?" not_s $end
$var reg 1 @" andout1 $end
$var reg 1 A" andout2 $end
$scope module not1 $end
$var reg 1 B" a $end
$var reg 1 C" o $end
$upscope $end
$scope module and1 $end
$var reg 1 D" a $end
$var reg 1 E" b $end
$var reg 1 F" o $end
$upscope $end
$scope module and2 $end
$var reg 1 G" a $end
$var reg 1 H" b $end
$var reg 1 I" o $end
$upscope $end
$scope module or1 $end
$var reg 1 J" a $end
$var reg 1 K" b $end
$var reg 1 L" o $end
$upscope $end
$upscope $end
$upscope $end
$scope module gen1(3) $end
$scope module mux_two_ones $end
$var reg 1 M" a $end
$var reg 1 N" b $end
$var reg 1 O" s $end
$var reg 1 P" o $end
$var reg 1 Q" not_s $end
$var reg 1 R" andout1 $end
$var reg 1 S" andout2 $end
$scope module not1 $end
$var reg 1 T" a $end
$var reg 1 U" o $end
$upscope $end
$scope module and1 $end
$var reg 1 V" a $end
$var reg 1 W" b $end
$var reg 1 X" o $end
$upscope $end
$scope module and2 $end
$var reg 1 Y" a $end
$var reg 1 Z" b $end
$var reg 1 [" o $end
$upscope $end
$scope module or1 $end
$var reg 1 \" a $end
$var reg 1 ]" b $end
$var reg 1 ^" o $end
$upscope $end
$upscope $end
$upscope $end
$scope module gen1(4) $end
$scope module mux_two_ones $end
$var reg 1 _" a $end
$var reg 1 `" b $end
$var reg 1 a" s $end
$var reg 1 b" o $end
$var reg 1 c" not_s $end
$var reg 1 d" andout1 $end
$var reg 1 e" andout2 $end
$scope module not1 $end
$var reg 1 f" a $end
$var reg 1 g" o $end
$upscope $end
$scope module and1 $end
$var reg 1 h" a $end
$var reg 1 i" b $end
$var reg 1 j" o $end
$upscope $end
$scope module and2 $end
$var reg 1 k" a $end
$var reg 1 l" b $end
$var reg 1 m" o $end
$upscope $end
$scope module or1 $end
$var reg 1 n" a $end
$var reg 1 o" b $end
$var reg 1 p" o $end
$upscope $end
$upscope $end
$upscope $end
$scope module gen1(5) $end
$scope module mux_two_ones $end
$var reg 1 q" a $end
$var reg 1 r" b $end
$var reg 1 s" s $end
$var reg 1 t" o $end
$var reg 1 u" not_s $end
$var reg 1 v" andout1 $end
$var reg 1 w" andout2 $end
$scope module not1 $end
$var reg 1 x" a $end
$var reg 1 y" o $end
$upscope $end
$scope module and1 $end
$var reg 1 z" a $end
$var reg 1 {" b $end
$var reg 1 |" o $end
$upscope $end
$scope module and2 $end
$var reg 1 }" a $end
$var reg 1 !# b $end
$var reg 1 "# o $end
$upscope $end
$scope module or1 $end
$var reg 1 ## a $end
$var reg 1 $# b $end
$var reg 1 %# o $end
$upscope $end
$upscope $end
$upscope $end
$scope module gen1(6) $end
$scope module mux_two_ones $end
$var reg 1 &# a $end
$var reg 1 '# b $end
$var reg 1 (# s $end
$var reg 1 )# o $end
$var reg 1 *# not_s $end
$var reg 1 +# andout1 $end
$var reg 1 ,# andout2 $end
$scope module not1 $end
$var reg 1 -# a $end
$var reg 1 .# o $end
$upscope $end
$scope module and1 $end
$var reg 1 /# a $end
$var reg 1 0# b $end
$var reg 1 1# o $end
$upscope $end
$scope module and2 $end
$var reg 1 2# a $end
$var reg 1 3# b $end
$var reg 1 4# o $end
$upscope $end
$scope module or1 $end
$var reg 1 5# a $end
$var reg 1 6# b $end
$var reg 1 7# o $end
$upscope $end
$upscope $end
$upscope $end
$scope module gen1(7) $end
$scope module mux_two_ones $end
$var reg 1 8# a $end
$var reg 1 9# b $end
$var reg 1 :# s $end
$var reg 1 ;# o $end
$var reg 1 <# not_s $end
$var reg 1 =# andout1 $end
$var reg 1 ># andout2 $end
$scope module not1 $end
$var reg 1 ?# a $end
$var reg 1 @# o $end
$upscope $end
$scope module and1 $end
$var reg 1 A# a $end
$var reg 1 B# b $end
$var reg 1 C# o $end
$upscope $end
$scope module and2 $end
$var reg 1 D# a $end
$var reg 1 E# b $end
$var reg 1 F# o $end
$upscope $end
$scope module or1 $end
$var reg 1 G# a $end
$var reg 1 H# b $end
$var reg 1 I# o $end
$upscope $end
$upscope $end
$upscope $end
$upscope $end
$scope module and1 $end
$var reg 1 J# a $end
$var reg 1 K# b $end
$var reg 1 L# o $end
$upscope $end
$scope module and2 $end
$var reg 1 M# a $end
$var reg 1 N# b $end
$var reg 1 O# o $end
$upscope $end
$scope module and3 $end
$var reg 1 P# a $end
$var reg 1 Q# b $end
$var reg 1 R# o $end
$upscope $end
$scope module or1 $end
$var reg 1 S# a $end
$var reg 1 T# b $end
$var reg 1 U# c $end
$var reg 1 V# o $end
$upscope $end
$scope module or2 $end
$var reg 1 W# a $end
$var reg 1 X# b $end
$var reg 1 Y# o $end
$upscope $end
$scope module stack1 $end
$var reg 8 Z# d[7:0] $end
$var reg 8 [# q[7:0] $end
$var reg 1 \# bar_push_pop $end
$var reg 1 ]# full $end
$var reg 1 ^# empty $end
$var reg 1 _# en $end
$var reg 1 `# clk $end
$var reg 1 a# rst $end
$comment memory is not handled $end
$upscope $end
$upscope $end
$upscope $end
$enddefinitions $end
#0
b00000000 !
b00000000 "
b0010 #
b0010 $
0%
1&
0'
0(
0)
0*
b00000000 +
0,
1-
0.
0/
b0010 0
b0010 1
02
b00000000 3
04
05
16
07
18
09
0:
0;
0<
0=
1>
0?
b00000000 @
b00000000 A
0B
0C
1D
b0010 E
0F
1G
0H
1I
0J
b0000 K
1L
0M
0N
0O
1P
0Q
1R
0S
b0000 T
b0000 U
b0000 V
b0010 W
0X
0Y
0Z
1[
b0010 \
0]
1^
0_
1`
0a
b0000 b
1c
0d
0e
0f
1g
0h
1i
0j
b0000 k
b0000 l
b0000 m
b0010 n
0o
b00000000 p
b00000000 q
0r
b00000000 s
0t
0u
0v
0w
1x
0y
0z
0{
1|
0}
1!"
0""
0#"
0$"
0%"
0&"
0'"
0("
0)"
0*"
0+"
0,"
1-"
0."
0/"
00"
11"
02"
13"
04"
05"
06"
07"
08"
09"
0:"
0;"
0<"
0="
0>"
1?"
0@"
0A"
0B"
1C"
0D"
1E"
0F"
0G"
0H"
0I"
0J"
0K"
0L"
0M"
0N"
0O"
0P"
1Q"
0R"
0S"
0T"
1U"
0V"
1W"
0X"
0Y"
0Z"
0["
0\"
0]"
0^"
0_"
0`"
0a"
0b"
1c"
0d"
0e"
0f"
1g"
0h"
1i"
0j"
0k"
0l"
0m"
0n"
0o"
0p"
0q"
0r"
0s"
0t"
1u"
0v"
0w"
0x"
1y"
0z"
1{"
0|"
0}"
0!#
0"#
0##
0$#
0%#
0&#
0'#
0(#
0)#
1*#
0+#
0,#
0-#
1.#
0/#
10#
01#
02#
03#
04#
05#
06#
07#
08#
09#
0:#
0;#
1<#
0=#
0>#
0?#
1@#
0A#
1B#
0C#
0D#
0E#
0F#
0G#
0H#
0I#
0J#
0K#
0L#
0M#
1N#
0O#
0P#
1Q#
0R#
0S#
0T#
0U#
0V#
0W#
0X#
0Y#
b00000000 Z#
b00000000 [#
0\#
0]#
1^#
0_#
0`#
1a#
#10000000
0&
1'
0-
1.
1:
1C
0D
0R
1S
0[
0i
1W#
1Y#
1_#
0a#
#20000000
b00000001 !
b00000001 +
b00000001 A
b00000001 p
b00000001 s
1t
1w
1y
1}
1""
1&"
1("
b00000001 Z#
#30000000
b00000001 "
1%
1,
b00000001 3
19
1<
1=
0>
1B
1H
b0001 K
1M
1N
1Q
b0001 T
b0001 U
b0001 V
1Y
1_
1d
1e
1h
1J#
1M#
1O#
1P#
1R#
1T#
1U#
1V#
b00000001 [#
0^#
1`#
#40000000
0%
0,
09
0<
0=
0B
0H
0M
0N
0Q
0Y
0_
0d
0e
0h
0J#
0M#
0O#
0P#
0R#
0T#
0U#
0V#
0`#
#50000000
b00000010 !
b00000010 +
b00000010 A
b00000010 p
b00000010 s
0t
0w
0y
0}
0""
0&"
0("
1)"
1,"
1."
12"
14"
18"
1:"
b00000010 Z#
#60000000
b00000010 "
1%
1)
1,
12
b00000010 3
15
06
19
0<
1=
b00000000 A
1B
1F
0G
0H
0I
1J
b0010 K
0L
1M
0N
1O
0P
0Q
b0010 T
b0010 U
b0010 V
1X
1Y
1Z
1_
1d
1e
1h
1j
1r
b00000000 s
1v
0x
1{
0|
0!"
1$"
1+"
0,"
0-"
0."
10"
01"
03"
04"
16"
08"
0:"
1="
0?"
1B"
0C"
0E"
1H"
1O"
0Q"
1T"
0U"
0W"
1Z"
1a"
0c"
1f"
0g"
0i"
1l"
1s"
0u"
1x"
0y"
0{"
1!#
1(#
0*#
1-#
0.#
00#
13#
1:#
0<#
1?#
0@#
0B#
1E#
1J#
1M#
0N#
0O#
1P#
1R#
0T#
1U#
1V#
b00000000 Z#
b00000010 [#
1`#
#70000000
0%
0,
09
0=
0B
0M
0Y
0_
0d
0e
0h
0J#
0M#
0P#
0R#
0U#
0V#
0`#
#80000000
b00000011 !
b00000011 +
b00000011 p
1t
1}
#90000000
b00000000 "
1%
1,
b00000000 3
19
1=
1B
1M
1Y
1_
b0001 b
1d
1e
1h
b0001 k
b0001 l
b0001 m
1J#
1M#
1P#
1R#
1U#
1V#
b00000000 [#
1`#
#100000000
0%
0,
09
0=
0B
0M
0Y
0_
0d
0e
0h
0J#
0M#
0P#
0R#
0U#
0V#
0`#
#110000000
b00000100 !
b00000100 +
b00000100 p
0t
0}
0)"
02"
1;"
1D"
#120000000
1%
1*
1,
14
17
08
09
0=
1B
1M
1Y
1]
0^
0_
0`
1a
b0010 b
0c
1d
0e
1f
0g
0h
b0010 k
b0010 l
b0010 m
1o
1J#
1M#
1P#
0Q#
0R#
0U#
0V#
0`#
#130000000
0%
0,
0B
0M
0Y
0d
0J#
0M#
0P#
#140000000
b00000101 !
b00000101 +
b00000101 p
1t
1}
#150000000
1%
1,
1B
1M
1Y
1d
1J#
1M#
1P#
#160000000
0%
0,
0B
0M
0Y
0d
0J#
0M#
0P#
#170000000
0'
1(
0.
1/
0C
0S
1K#
0W#
1X#
1\#
#180000000
1%
1,
19
1;
1B
1M
1Y
1d
1J#
1L#
1M#
1P#
1S#
1V#
1`#
#190000000
0%
0,
09
0;
0B
0M
0Y
0d
0J#
0L#
0M#
0P#
0S#
0V#
0`#
#200000000
#210000000
b00000010 "
1%
1,
b00000010 3
19
1;
1B
1M
1Y
1d
1J#
1L#
1M#
1P#
1S#
1V#
b00000010 [#
1`#
#220000000
0%
0,
09
0;
0B
0M
0Y
0d
0J#
0L#
0M#
0P#
0S#
0V#
0`#
#230000000
#240000000
b00000001 "
1%
1,
b00000001 3
19
1;
1B
1M
1Y
1d
1J#
1L#
1M#
1P#
1S#
1V#
b00000001 [#
1`#
#250000000
0%
0,
09
0;
0B
0M
0Y
0d
0J#
0L#
0M#
0P#
0S#
0V#
0`#
#260000000
#270000000
b00000000 "
1%
1,
b00000000 3
19
1;
1>
1B
1M
1Y
1d
1J#
1L#
1M#
1P#
1S#
1V#
b00000000 [#
1^#
1`#
#280000000
0%
0,
09
0;
0B
0M
0Y
0d
0J#
0L#
0M#
0P#
0S#
0V#
0`#
